^E:\UNI YEAR 3\MULTIPLAYER GAME DEVELOPMENT\TANKGAME\TANKGAME\TANKGAME\GAME.CPP
/c /I"E:\UNI YEAR 3\MULTIPLAYER GAME DEVELOPMENT\SDL2_IMAGE-2.0.5\INCLUDE" /I"E:\UNI YEAR 3\MULTIPLAYER GAME DEVELOPMENT\SDL2-2.0.16\INCLUDE" /ZI /JMC /nologo /W3 /WX- /diagnostics:classic /sdl /Od /Oy- /D _MBCS /Gm- /EHsc /RTC1 /MDd /GS /fp:precise /permissive- /Zc:wchar_t /Zc:forScope /Zc:inline /Fo"DEBUG\\" /Fd"DEBUG\VC141.PDB" /Gd /TP /analyze- /FC E:\UNI YEAR 3\MULTIPLAYER GAME DEVELOPMENT\TANKGAME\TANKGAME\TANKGAME\GAME.CPP
^E:\UNI YEAR 3\MULTIPLAYER GAME DEVELOPMENT\TANKGAME\TANKGAME\TANKGAME\MAIN.CPP
/c /I"E:\UNI YEAR 3\MULTIPLAYER GAME DEVELOPMENT\SDL2_IMAGE-2.0.5\INCLUDE" /I"E:\UNI YEAR 3\MULTIPLAYER GAME DEVELOPMENT\SDL2-2.0.16\INCLUDE" /ZI /JMC /nologo /W3 /WX- /diagnostics:classic /sdl /Od /Oy- /D _MBCS /Gm- /EHsc /RTC1 /MDd /GS /fp:precise /permissive- /Zc:wchar_t /Zc:forScope /Zc:inline /Fo"DEBUG\\" /Fd"DEBUG\VC141.PDB" /Gd /TP /analyze- /FC E:\UNI YEAR 3\MULTIPLAYER GAME DEVELOPMENT\TANKGAME\TANKGAME\TANKGAME\MAIN.CPP
