^E:\UNI YEAR 3\MULTIPLAYER GAME DEVELOPMENT\TANKGAME\TANKGAME\TANKGAME\GAME.CPP|E:\UNI YEAR 3\MULTIPLAYER GAME DEVELOPMENT\TANKGAME\TANKGAME\TANKGAME\MAIN.CPP
E:\UNI YEAR 3\MULTIPLAYER GAME DEVELOPMENT\TANKGAME\TANKGAME\TANKGAME\DEBUG\VC141.PDB
E:\UNI YEAR 3\MULTIPLAYER GAME DEVELOPMENT\TANKGAME\TANKGAME\TANKGAME\DEBUG\VC141.IDB
E:\UNI YEAR 3\MULTIPLAYER GAME DEVELOPMENT\TANKGAME\TANKGAME\TANKGAME\DEBUG\MAIN.OBJ
E:\UNI YEAR 3\MULTIPLAYER GAME DEVELOPMENT\TANKGAME\TANKGAME\TANKGAME\DEBUG\GAME.OBJ
^E:\UNI YEAR 3\MULTIPLAYER GAME DEVELOPMENT\TANKGAME\TANKGAME\TANKGAME\GAME.CPP
E:\UNI YEAR 3\MULTIPLAYER GAME DEVELOPMENT\TANKGAME\TANKGAME\TANKGAME\DEBUG\VC141.PDB
^E:\UNI YEAR 3\MULTIPLAYER GAME DEVELOPMENT\TANKGAME\TANKGAME\TANKGAME\MAIN.CPP
E:\UNI YEAR 3\MULTIPLAYER GAME DEVELOPMENT\TANKGAME\TANKGAME\TANKGAME\DEBUG\VC141.PDB
